{
	"info": {
		"_postman_id": "6c78b4ba-fb49-4881-9607-457a5f578407",
		"name": "vagaJava Copy",
		"schema": "https://schema.getpostman.com/json/collection/v2.1.0/collection.json"
	},
	"item": [
		{
			"name": "http://localhost:8080/clientes",
			"request": {
				"method": "GET",
				"header": [],
				"url": {
					"raw": "http://localhost:8080/clientesList/?page=0&size=2",
					"protocol": "http",
					"host": [
						"localhost"
					],
					"port": "8080",
					"path": [
						"clientesList",
						""
					],
					"query": [
						{
							"key": "page",
							"value": "0"
						},
						{
							"key": "size",
							"value": "2"
						}
					]
				}
			},
			"response": []
		},
		{
			"name": "http://localhost:8080/clientes",
			"request": {
				"method": "POST",
				"header": [
					{
						"key": "Content-Type",
						"value": "application/json",
						"type": "text"
					}
				],
				"body": {
					"mode": "raw",
					"raw": "{\r\n    \"id\": \"3\",\r\n    \"nome\": \"Luis\",\r\n    \"cpf\": \"05095059967\",\r\n    \"datanascimento\": \"2020-05-05\"\r\n}"
				},
				"url": {
					"raw": "http://localhost:8080/clientes",
					"protocol": "http",
					"host": [
						"localhost"
					],
					"port": "8080",
					"path": [
						"clientes"
					]
				}
			},
			"response": []
		},
		{
			"name": "http://localhost:8080/clientes/2",
			"request": {
				"method": "PUT",
				"header": [
					{
						"key": "Content-Type",
						"value": "application/json",
						"type": "text"
					}
				],
				"body": {
					"mode": "raw",
					"raw": "{\r\n        \"id\": \"2\",\r\n        \"nome\": \"Luis Guilherme\",\r\n        \"cpf\": \"05095059967\",\r\n    \"datanascimento\": \"2020-10-30\"\r\n    }"
				},
				"url": {
					"raw": "http://localhost:8080/clientes/2",
					"protocol": "http",
					"host": [
						"localhost"
					],
					"port": "8080",
					"path": [
						"clientes",
						"2"
					]
				}
			},
			"response": []
		},
		{
			"name": "http://localhost:8080/clientes/2",
			"request": {
				"method": "DELETE",
				"header": [],
				"url": {
					"raw": "http://localhost:8080/clientes/2",
					"protocol": "http",
					"host": [
						"localhost"
					],
					"port": "8080",
					"path": [
						"clientes",
						"2"
					]
				}
			},
			"response": []
		},
		{
			"name": "http://localhost:8080/clientes/?nome=Luis&cpf=05154548465",
			"request": {
				"method": "GET",
				"header": [],
				"url": {
					"raw": "http://localhost:8080/clientes/?nome=Luis&cpf=05154548465",
					"protocol": "http",
					"host": [
						"localhost"
					],
					"port": "8080",
					"path": [
						"clientes",
						""
					],
					"query": [
						{
							"key": "nome",
							"value": "Luis"
						},
						{
							"key": "cpf",
							"value": "05154548465"
						}
					]
				}
			},
			"response": []
		}
	],
	"protocolProfileBehavior": {}
}